Quantium analysis
…
2.1.2 Standardizing the brand name

To be sure that the two mean the same thing, I do a quick check to
compare their product descriptions side by side for any
similarities.

cleanTransaction %>%
  filter(grepl("^Dorito", Brand, ignore.case = TRUE)) %>%
  group_by(Description, tot_sales, prod_qty) %>%
  distinct(Brand)

## # A tibble: 38 × 4
## # Groups:   Description, tot_sales, prod_qty [38]
##    Description                     tot_sales prod_qty Brand  
##    <chr>                               <dbl>    <dbl> <chr>  
##  1 Corn Chip Mexican Jalapeno 150g      3.9         1 Doritos
##  2 Corn Chip Southern Chicken 150g      3.9         1 Doritos
##  3 Mexicana    170g                     4.4         1 Doritos
##  4 Corn Chp     Supreme 380g            3.25        1 Dorito 
##  5 Corn Chip Mexican Jalapeno 150g      7.8         2 Doritos
##  6 Salsa       Medium 300g              2.6         1 Doritos
##  7 Corn Chp     Supreme 380g            6.5         2 Dorito 
##  8 Corn Chips  Original 170g            4.4         1 Doritos
##  9 Corn Chip Southern Chicken 150g      7.8         2 Doritos
## 10 Corn Chips  Original 170g           13.2         3 Doritos
## # ℹ 28 more rows
…
Setting the plot theme

theme_set(theme_bw())

3.1 Transaction trend over time

What does the customer spending look like over time?. Are customers
spending more and more each month with an upward trend? Is there an
expected seasonal spike?

mergedData %>%
  count(date)

## # A tibble: 364 × 2
##    date           n
##    <date>     <int>
##  1 2018-07-01   601
##  2 2018-07-02   602
##  3 2018-07-03   609
##  4 2018-07-04   621
##  5 2018-07-05   593
##  6 2018-07-06   659
##  7 2018-07-07   635
##  8 2018-07-08   605
##  9 2018-07-09   641
## 10 2018-07-10   587
## # ℹ 354 more rows
…
After doing this, I went back to re-run the premium customer line of
code to see if it worked, and it did.

3.3.3 Summary of product transactions

mergedData %>%
  group_by(Brand) %>%
  summarise(minsales = min(tot_sales, na.rm = TRUE),
            maxsales = max(tot_sales, na.rm = TRUE),
            meansales = mean(tot_sales, na.rm = TRUE)) %>%
  arrange(-meansales) 

## # A tibble: 23 × 4
##    Brand     minsales maxsales meansales
##    <chr>        <dbl>    <dbl>     <dbl>
##  1 Kettle         4.2     27        9.45
##  2 Twisties       4.6     23        8.79
##  3 Tostitos       4.4     22        8.42
##  4 Doritos        2.6     22        8.20
##  5 Tyrrells       4.2     21        8.02
##  6 Smiths         2.6     29.5      7.40
##  7 Cobs           3.8     19        7.28
##  8 Pringles       3.7     18.5      7.08
##  9 Infuzions      2.4     19        6.97
## 10 Grain          3.6     18        6.86
## # ℹ 13 more rows
…
